-- Merging decision tree log ---
manifest
ADDED from D:\Android\Project\DiningPark\app\src\main\AndroidManifest.xml:2:1-115:12
	package
		ADDED from D:\Android\Project\DiningPark\app\src\main\AndroidManifest.xml:3:5-32
		INJECTED from D:\Android\Project\DiningPark\app\src\main\AndroidManifest.xml
		INJECTED from D:\Android\Project\DiningPark\app\src\main\AndroidManifest.xml
	android:versionName
		INJECTED from D:\Android\Project\DiningPark\app\src\main\AndroidManifest.xml
		INJECTED from D:\Android\Project\DiningPark\app\src\main\AndroidManifest.xml
	xmlns:android
		ADDED from D:\Android\Project\DiningPark\app\src\main\AndroidManifest.xml:2:11-69
	android:versionCode
		INJECTED from D:\Android\Project\DiningPark\app\src\main\AndroidManifest.xml
		INJECTED from D:\Android\Project\DiningPark\app\src\main\AndroidManifest.xml
uses-permission#android.permission.READ_PHONE_STATE
ADDED from D:\Android\Project\DiningPark\app\src\main\AndroidManifest.xml:6:5-75
	android:name
		ADDED from D:\Android\Project\DiningPark\app\src\main\AndroidManifest.xml:6:22-72
uses-permission#android.permission.WRITE_CONTACTS
ADDED from D:\Android\Project\DiningPark\app\src\main\AndroidManifest.xml:7:5-73
	android:name
		ADDED from D:\Android\Project\DiningPark\app\src\main\AndroidManifest.xml:7:22-70
uses-permission#android.permission.INTERNET
ADDED from D:\Android\Project\DiningPark\app\src\main\AndroidManifest.xml:8:5-67
	android:name
		ADDED from D:\Android\Project\DiningPark\app\src\main\AndroidManifest.xml:8:22-64
uses-permission#android.permission.WRITE_EXTERNAL_STORAGE
ADDED from D:\Android\Project\DiningPark\app\src\main\AndroidManifest.xml:9:5-81
	android:name
		ADDED from D:\Android\Project\DiningPark\app\src\main\AndroidManifest.xml:9:22-78
uses-permission#android.permission.ACCESS_NETWORK_STATE
ADDED from D:\Android\Project\DiningPark\app\src\main\AndroidManifest.xml:10:5-79
	android:name
		ADDED from D:\Android\Project\DiningPark\app\src\main\AndroidManifest.xml:10:22-76
uses-permission#android.permission.READ_EXTERNAL_STORAGE
ADDED from D:\Android\Project\DiningPark\app\src\main\AndroidManifest.xml:11:5-80
	android:name
		ADDED from D:\Android\Project\DiningPark\app\src\main\AndroidManifest.xml:11:22-77
uses-permission#android.permission.CALL_PHONE
ADDED from D:\Android\Project\DiningPark\app\src\main\AndroidManifest.xml:12:5-69
	android:name
		ADDED from D:\Android\Project\DiningPark\app\src\main\AndroidManifest.xml:12:22-66
uses-permission#android.permission.GET_ACCOUNTS
ADDED from D:\Android\Project\DiningPark\app\src\main\AndroidManifest.xml:13:5-71
	android:name
		ADDED from D:\Android\Project\DiningPark\app\src\main\AndroidManifest.xml:13:22-68
uses-permission#android.permission.READ_PROFILE
ADDED from D:\Android\Project\DiningPark\app\src\main\AndroidManifest.xml:14:5-71
	android:name
		ADDED from D:\Android\Project\DiningPark\app\src\main\AndroidManifest.xml:14:22-68
uses-permission#android.permission.READ_CONTACTS
ADDED from D:\Android\Project\DiningPark\app\src\main\AndroidManifest.xml:15:5-72
	android:name
		ADDED from D:\Android\Project\DiningPark\app\src\main\AndroidManifest.xml:15:22-69
application
ADDED from D:\Android\Project\DiningPark\app\src\main\AndroidManifest.xml:17:5-113:19
MERGED from [com.android.support:design:24.1.1] D:\Android\Project\DiningPark\app\build\intermediates\exploded-aar\com.android.support\design\24.1.1\AndroidManifest.xml:22:5-20
MERGED from [com.android.support:support-v4:24.1.1] D:\Android\Project\DiningPark\app\build\intermediates\exploded-aar\com.android.support\support-v4\24.1.1\AndroidManifest.xml:25:5-20
MERGED from [com.android.support:appcompat-v7:24.1.1] D:\Android\Project\DiningPark\app\build\intermediates\exploded-aar\com.android.support\appcompat-v7\24.1.1\AndroidManifest.xml:25:5-20
MERGED from [com.android.support:animated-vector-drawable:24.1.1] D:\Android\Project\DiningPark\app\build\intermediates\exploded-aar\com.android.support\animated-vector-drawable\24.1.1\AndroidManifest.xml:22:5-20
MERGED from [com.android.support:support-vector-drawable:24.1.1] D:\Android\Project\DiningPark\app\build\intermediates\exploded-aar\com.android.support\support-vector-drawable\24.1.1\AndroidManifest.xml:23:5-20
MERGED from [com.android.support:cardview-v7:24.1.1] D:\Android\Project\DiningPark\app\build\intermediates\exploded-aar\com.android.support\cardview-v7\24.1.1\AndroidManifest.xml:22:5-20
MERGED from [com.google.android.gms:play-services-appindexing:8.4.0] D:\Android\Project\DiningPark\app\build\intermediates\exploded-aar\com.google.android.gms\play-services-appindexing\8.4.0\AndroidManifest.xml:19:5-20
MERGED from [com.google.android.gms:play-services-basement:8.4.0] D:\Android\Project\DiningPark\app\build\intermediates\exploded-aar\com.google.android.gms\play-services-basement\8.4.0\AndroidManifest.xml:20:5-24:19
	android:label
		ADDED from D:\Android\Project\DiningPark\app\src\main\AndroidManifest.xml:20:9-41
	android:supportsRtl
		ADDED from D:\Android\Project\DiningPark\app\src\main\AndroidManifest.xml:21:9-35
	android:allowBackup
		ADDED from D:\Android\Project\DiningPark\app\src\main\AndroidManifest.xml:18:9-35
	android:icon
		ADDED from D:\Android\Project\DiningPark\app\src\main\AndroidManifest.xml:19:9-45
	android:theme
		ADDED from D:\Android\Project\DiningPark\app\src\main\AndroidManifest.xml:22:9-40
activity#np.com.diningpark.LoadingActivity
ADDED from D:\Android\Project\DiningPark\app\src\main\AndroidManifest.xml:23:9-32:20
	android:screenOrientation
		ADDED from D:\Android\Project\DiningPark\app\src\main\AndroidManifest.xml:25:13-50
	android:theme
		ADDED from D:\Android\Project\DiningPark\app\src\main\AndroidManifest.xml:26:13-56
	android:name
		ADDED from D:\Android\Project\DiningPark\app\src\main\AndroidManifest.xml:24:13-44
intent-filter#android.intent.action.MAIN+android.intent.category.LAUNCHER
ADDED from D:\Android\Project\DiningPark\app\src\main\AndroidManifest.xml:27:13-31:29
action#android.intent.action.MAIN
ADDED from D:\Android\Project\DiningPark\app\src\main\AndroidManifest.xml:28:17-69
	android:name
		ADDED from D:\Android\Project\DiningPark\app\src\main\AndroidManifest.xml:28:25-66
category#android.intent.category.LAUNCHER
ADDED from D:\Android\Project\DiningPark\app\src\main\AndroidManifest.xml:30:17-77
	android:name
		ADDED from D:\Android\Project\DiningPark\app\src\main\AndroidManifest.xml:30:27-74
activity#np.com.diningpark.WelcomeActivity
ADDED from D:\Android\Project\DiningPark\app\src\main\AndroidManifest.xml:33:9-37:59
	android:screenOrientation
		ADDED from D:\Android\Project\DiningPark\app\src\main\AndroidManifest.xml:36:13-50
	android:label
		ADDED from D:\Android\Project\DiningPark\app\src\main\AndroidManifest.xml:35:13-45
	android:theme
		ADDED from D:\Android\Project\DiningPark\app\src\main\AndroidManifest.xml:37:13-56
	android:name
		ADDED from D:\Android\Project\DiningPark\app\src\main\AndroidManifest.xml:34:13-44
activity#np.com.diningpark.StartActivity
ADDED from D:\Android\Project\DiningPark\app\src\main\AndroidManifest.xml:38:9-41:59
	android:screenOrientation
		ADDED from D:\Android\Project\DiningPark\app\src\main\AndroidManifest.xml:40:13-50
	android:theme
		ADDED from D:\Android\Project\DiningPark\app\src\main\AndroidManifest.xml:41:13-56
	android:name
		ADDED from D:\Android\Project\DiningPark\app\src\main\AndroidManifest.xml:39:13-42
activity#np.com.diningpark.MainActivity
ADDED from D:\Android\Project\DiningPark\app\src\main\AndroidManifest.xml:42:9-57:20
	android:screenOrientation
		ADDED from D:\Android\Project\DiningPark\app\src\main\AndroidManifest.xml:45:13-50
	android:label
		ADDED from D:\Android\Project\DiningPark\app\src\main\AndroidManifest.xml:44:13-56
	android:theme
		ADDED from D:\Android\Project\DiningPark\app\src\main\AndroidManifest.xml:46:13-56
	android:name
		ADDED from D:\Android\Project\DiningPark\app\src\main\AndroidManifest.xml:43:13-41
intent-filter#android.intent.action.SEARCH
ADDED from D:\Android\Project\DiningPark\app\src\main\AndroidManifest.xml:47:13-49:29
action#android.intent.action.SEARCH
ADDED from D:\Android\Project\DiningPark\app\src\main\AndroidManifest.xml:48:17-71
	android:name
		ADDED from D:\Android\Project\DiningPark\app\src\main\AndroidManifest.xml:48:25-68
meta-data#android.app.default_searchable
ADDED from D:\Android\Project\DiningPark\app\src\main\AndroidManifest.xml:51:13-53:66
	android:value
		ADDED from D:\Android\Project\DiningPark\app\src\main\AndroidManifest.xml:53:17-63
	android:name
		ADDED from D:\Android\Project\DiningPark\app\src\main\AndroidManifest.xml:52:17-62
meta-data#android.app.searchable
ADDED from D:\Android\Project\DiningPark\app\src\main\AndroidManifest.xml:54:13-56:58
	android:resource
		ADDED from D:\Android\Project\DiningPark\app\src\main\AndroidManifest.xml:56:17-55
	android:name
		ADDED from D:\Android\Project\DiningPark\app\src\main\AndroidManifest.xml:55:17-54
activity#np.com.diningpark.CustomerWelcome
ADDED from D:\Android\Project\DiningPark\app\src\main\AndroidManifest.xml:58:9-61:59
	android:screenOrientation
		ADDED from D:\Android\Project\DiningPark\app\src\main\AndroidManifest.xml:60:13-50
	android:theme
		ADDED from D:\Android\Project\DiningPark\app\src\main\AndroidManifest.xml:61:13-56
	android:name
		ADDED from D:\Android\Project\DiningPark\app\src\main\AndroidManifest.xml:59:13-44
activity#np.com.diningpark.EditOrderListActivity
ADDED from D:\Android\Project\DiningPark\app\src\main\AndroidManifest.xml:62:9-66:55
	android:screenOrientation
		ADDED from D:\Android\Project\DiningPark\app\src\main\AndroidManifest.xml:65:13-50
	android:launchMode
		ADDED from D:\Android\Project\DiningPark\app\src\main\AndroidManifest.xml:64:13-43
	android:theme
		ADDED from D:\Android\Project\DiningPark\app\src\main\AndroidManifest.xml:66:13-52
	android:name
		ADDED from D:\Android\Project\DiningPark\app\src\main\AndroidManifest.xml:63:13-50
activity#np.com.diningpark.TableDetailActivity
ADDED from D:\Android\Project\DiningPark\app\src\main\AndroidManifest.xml:67:9-70:59
	android:screenOrientation
		ADDED from D:\Android\Project\DiningPark\app\src\main\AndroidManifest.xml:69:13-50
	android:theme
		ADDED from D:\Android\Project\DiningPark\app\src\main\AndroidManifest.xml:70:13-56
	android:name
		ADDED from D:\Android\Project\DiningPark\app\src\main\AndroidManifest.xml:68:13-48
activity#np.com.diningpark.WaiterMainActivity
ADDED from D:\Android\Project\DiningPark\app\src\main\AndroidManifest.xml:71:9-75:59
	android:screenOrientation
		ADDED from D:\Android\Project\DiningPark\app\src\main\AndroidManifest.xml:74:13-50
	android:label
		ADDED from D:\Android\Project\DiningPark\app\src\main\AndroidManifest.xml:73:13-45
	android:theme
		ADDED from D:\Android\Project\DiningPark\app\src\main\AndroidManifest.xml:75:13-56
	android:name
		ADDED from D:\Android\Project\DiningPark\app\src\main\AndroidManifest.xml:72:13-47
activity#np.com.diningpark.SearchMenuActivity
ADDED from D:\Android\Project\DiningPark\app\src\main\AndroidManifest.xml:76:9-79:59
	android:screenOrientation
		ADDED from D:\Android\Project\DiningPark\app\src\main\AndroidManifest.xml:78:13-50
	android:theme
		ADDED from D:\Android\Project\DiningPark\app\src\main\AndroidManifest.xml:79:13-56
	android:name
		ADDED from D:\Android\Project\DiningPark\app\src\main\AndroidManifest.xml:77:13-47
activity#np.com.diningpark.helpers.AdoutusActivity
ADDED from D:\Android\Project\DiningPark\app\src\main\AndroidManifest.xml:80:9-84:59
	android:screenOrientation
		ADDED from D:\Android\Project\DiningPark\app\src\main\AndroidManifest.xml:83:13-50
	android:label
		ADDED from D:\Android\Project\DiningPark\app\src\main\AndroidManifest.xml:82:13-59
	android:theme
		ADDED from D:\Android\Project\DiningPark\app\src\main\AndroidManifest.xml:84:13-56
	android:name
		ADDED from D:\Android\Project\DiningPark\app\src\main\AndroidManifest.xml:81:13-52
activity#np.com.diningpark.ImageSlideShow
ADDED from D:\Android\Project\DiningPark\app\src\main\AndroidManifest.xml:85:9-89:59
	android:screenOrientation
		ADDED from D:\Android\Project\DiningPark\app\src\main\AndroidManifest.xml:88:13-50
	android:label
		ADDED from D:\Android\Project\DiningPark\app\src\main\AndroidManifest.xml:87:13-59
	android:theme
		ADDED from D:\Android\Project\DiningPark\app\src\main\AndroidManifest.xml:89:13-56
	android:name
		ADDED from D:\Android\Project\DiningPark\app\src\main\AndroidManifest.xml:86:13-43
activity#np.com.diningpark.helpers.CreditsActivity
ADDED from D:\Android\Project\DiningPark\app\src\main\AndroidManifest.xml:90:9-93:59
	android:label
		ADDED from D:\Android\Project\DiningPark\app\src\main\AndroidManifest.xml:92:13-59
	android:theme
		ADDED from D:\Android\Project\DiningPark\app\src\main\AndroidManifest.xml:93:13-56
	android:name
		ADDED from D:\Android\Project\DiningPark\app\src\main\AndroidManifest.xml:91:13-52
activity#np.com.diningpark.TableNoActivity
ADDED from D:\Android\Project\DiningPark\app\src\main\AndroidManifest.xml:94:9-98:59
	android:screenOrientation
		ADDED from D:\Android\Project\DiningPark\app\src\main\AndroidManifest.xml:97:13-50
	android:label
		ADDED from D:\Android\Project\DiningPark\app\src\main\AndroidManifest.xml:96:13-59
	android:theme
		ADDED from D:\Android\Project\DiningPark\app\src\main\AndroidManifest.xml:98:13-56
	android:name
		ADDED from D:\Android\Project\DiningPark\app\src\main\AndroidManifest.xml:95:13-44
activity#np.com.diningpark.WaiterMessageActivity
ADDED from D:\Android\Project\DiningPark\app\src\main\AndroidManifest.xml:99:9-108:20
	android:screenOrientation
		ADDED from D:\Android\Project\DiningPark\app\src\main\AndroidManifest.xml:102:13-50
	android:label
		ADDED from D:\Android\Project\DiningPark\app\src\main\AndroidManifest.xml:101:13-66
	android:parentActivityName
		ADDED from D:\Android\Project\DiningPark\app\src\main\AndroidManifest.xml:103:13-61
	android:theme
		ADDED from D:\Android\Project\DiningPark\app\src\main\AndroidManifest.xml:104:13-56
	android:name
		ADDED from D:\Android\Project\DiningPark\app\src\main\AndroidManifest.xml:100:13-50
meta-data#android.support.PARENT_ACTIVITY
ADDED from D:\Android\Project\DiningPark\app\src\main\AndroidManifest.xml:105:13-107:72
	android:value
		ADDED from D:\Android\Project\DiningPark\app\src\main\AndroidManifest.xml:107:17-69
	android:name
		ADDED from D:\Android\Project\DiningPark\app\src\main\AndroidManifest.xml:106:17-63
meta-data#com.google.android.gms.version
ADDED from D:\Android\Project\DiningPark\app\src\main\AndroidManifest.xml:110:9-112:69
MERGED from [com.google.android.gms:play-services-basement:8.4.0] D:\Android\Project\DiningPark\app\build\intermediates\exploded-aar\com.google.android.gms\play-services-basement\8.4.0\AndroidManifest.xml:21:9-23:69
	android:value
		ADDED from D:\Android\Project\DiningPark\app\src\main\AndroidManifest.xml:112:13-66
	android:name
		ADDED from D:\Android\Project\DiningPark\app\src\main\AndroidManifest.xml:111:13-58
uses-sdk
INJECTED from D:\Android\Project\DiningPark\app\src\main\AndroidManifest.xml reason: use-sdk injection requested
MERGED from [com.android.support:design:24.1.1] D:\Android\Project\DiningPark\app\build\intermediates\exploded-aar\com.android.support\design\24.1.1\AndroidManifest.xml:20:5-43
MERGED from [com.android.support:support-v4:24.1.1] D:\Android\Project\DiningPark\app\build\intermediates\exploded-aar\com.android.support\support-v4\24.1.1\AndroidManifest.xml:21:5-23:54
MERGED from [com.android.support:recyclerview-v7:24.1.1] D:\Android\Project\DiningPark\app\build\intermediates\exploded-aar\com.android.support\recyclerview-v7\24.1.1\AndroidManifest.xml:20:5-43
MERGED from [com.android.support:appcompat-v7:24.1.1] D:\Android\Project\DiningPark\app\build\intermediates\exploded-aar\com.android.support\appcompat-v7\24.1.1\AndroidManifest.xml:21:5-23:78
MERGED from [com.android.support:animated-vector-drawable:24.1.1] D:\Android\Project\DiningPark\app\build\intermediates\exploded-aar\com.android.support\animated-vector-drawable\24.1.1\AndroidManifest.xml:20:5-44
MERGED from [com.android.support:support-vector-drawable:24.1.1] D:\Android\Project\DiningPark\app\build\intermediates\exploded-aar\com.android.support\support-vector-drawable\24.1.1\AndroidManifest.xml:21:5-43
MERGED from [com.android.support:cardview-v7:24.1.1] D:\Android\Project\DiningPark\app\build\intermediates\exploded-aar\com.android.support\cardview-v7\24.1.1\AndroidManifest.xml:20:5-43
MERGED from [com.google.android.gms:play-services-appindexing:8.4.0] D:\Android\Project\DiningPark\app\build\intermediates\exploded-aar\com.google.android.gms\play-services-appindexing\8.4.0\AndroidManifest.xml:18:5-42
MERGED from [com.google.android.gms:play-services-base:8.4.0] D:\Android\Project\DiningPark\app\build\intermediates\exploded-aar\com.google.android.gms\play-services-base\8.4.0\AndroidManifest.xml:18:5-42
MERGED from [com.google.android.gms:play-services-basement:8.4.0] D:\Android\Project\DiningPark\app\build\intermediates\exploded-aar\com.google.android.gms\play-services-basement\8.4.0\AndroidManifest.xml:18:5-42
	tools:overrideLibrary
		ADDED from [com.android.support:support-v4:24.1.1] D:\Android\Project\DiningPark\app\build\intermediates\exploded-aar\com.android.support\support-v4\24.1.1\AndroidManifest.xml:23:9-51
	android:targetSdkVersion
		INJECTED from D:\Android\Project\DiningPark\app\src\main\AndroidManifest.xml
		INJECTED from D:\Android\Project\DiningPark\app\src\main\AndroidManifest.xml
	android:minSdkVersion
		INJECTED from D:\Android\Project\DiningPark\app\src\main\AndroidManifest.xml
		INJECTED from D:\Android\Project\DiningPark\app\src\main\AndroidManifest.xml
